GBI6 - BIOINFORMÁTICA
…
## 
## Attaching package: 'dplyr'

## The following objects are masked from 'package:stats':
## 
##     filter, lag

## The following objects are masked from 'package:base':
## 
##     intersect, setdiff, setequal, union

prueba <- df_long %>% group_by(gen)
prueba

## # A tibble: 10,241 x 3
## # Groups:   gen [7]
##    dataset gen   expresion_level
##    <fct>   <fct>           <dbl>
##  1 BRCA    GATA3           2.87 
##  2 BRCA    GATA3           2.17 
##  3 BRCA    GATA3           1.32 
##  4 BRCA    GATA3           1.84 
##  5 BRCA    GATA3          -6.03 
##  6 BRCA    GATA3           1.80 
##  7 BRCA    GATA3          -4.88 
##  8 BRCA    GATA3          -3.14 
##  9 BRCA    GATA3           2.03 
## 10 BRCA    GATA3          -0.293
## # ... with 10,231 more rows
…
